Hacking Germany’s Official Statistics with datenguideR
…
### Metadata with `dg_descriptions`

Get all available meta data on statistics, substatistics, and parameters:

```r
datenguideR::dg_descriptions
```

```
## # A tibble: 3,419 x 11
##    stat_name stat_description stat_descriptio… substat_name
##    <chr>     <chr>            <chr>            <chr>       
##  1 AENW01    Entsorgte/behan… "**Entsorgte/be… <NA>        
##  2 AENW02    Abgelagerte Abf… "**Abgelagerte … <NA>        
##  3 AENW03    Entsorg.u.Behan… "**Entsorg.u.Be… <NA>        
##  4 AENW04    Entsorgte/behan… "**Entsorgte/be… <NA>        
##  5 AENW05    Abgelagerte Abf… "**Abgelagerte … <NA>        
##  6 AENW06    Entsorg.u.Behan… "**Entsorg.u.Be… <NA>        
##  7 AEW001    Entsorgungs- un… "**Entsorgungs-… <NA>        
##  8 AEW001    Entsorgungs- un… "**Entsorgungs-… EBANL1      
##  9 AEW001    Entsorgungs- un… "**Entsorgungs-… EBANL1      
## 10 AEW001    Entsorgungs- un… "**Entsorgungs-… EBANL1      
## # … with 3,409 more rows, and 7 more variables: substat_description <chr>,
## #   param_name <chr>, param_description <chr>, stat_description_en <chr>,
## #   stat_description_full_en <chr>, substat_description_en <chr>,
## #   param_description_en <chr>
```
…
---

### How to use `dg_search`

`dg_search` matches your string with any variable in `dg_descriptions`, returning only rows with those matches.

Looking for variables where the string *"vote"* appears somewhere in the documentation:

```r
dg_search("vote") 
```

```
## # A tibble: 90 x 5
##    stat_name stat_descriptio… stat_descriptio… substat_descrip…
##    <chr>     <chr>            <chr>            <chr>           
##  1 AI0501    Second Vote Sha… "** CDU / CSU s… <NA>            
##  2 AI0502    SPD Second Vote… "** SPD second … <NA>            
##  3 AI0503    FDP Second Vote… "** Second vote… <NA>            
##  4 AI0504    Second Vote Sha… "** GREEN secon… <NA>            
##  5 AI0505    Second Vote Sha… "** Second vote… <NA>            
##  6 AI0506    Voter Turnout, … "** Voter turno… <NA>            
##  7 AI0601    CDU / CSU, Euro… "** CDU / CSU v… <NA>            
##  8 AI0602    SPD Vote Share,… "** SPD vote sh… <NA>            
##  9 AI0603    FDP Share of Vo… "** FDP vote sh… <NA>            
## 10 AI0604    Share of Votes … "** GREEN share… <NA>            
## # … with 80 more rows, and 1 more variable: param_description_en <chr>
```
…
